%YAML 1.1
%TAG !u! tag:unity3d.com,2011:
--- !u!1045 &1
EditorBuildSettings:
  m_ObjectHideFlags: 0
  serializedVersion: 2
  m_Scenes:
  - enabled: 1
    path: Assets/_Scenes/_Main.unity
    guid: 17b6463bb592340448d6fb19b9fbcf31
  - enabled: 1
    path: Assets/_Scenes/GameOver.unity
    guid: c77e7df0e966e4a46928f28d9d176428
  m_configObjects: {}
